
{
  "_id":{"$oid":"5f02ef2fef198216b720f94a"},
  "_class" : "com.tencent.bk.codecc.defect.model.checkerset.CheckerSetEntity",
  "checker_set_id" : "cloc_cpp",
  "version" : 1,
  "checker_set_name" : "代码行统计(C++)",
  "code_lang" : 2,
  "checker_set_lang" : "C/C++",
  "scope" : 1,
  "creator" : "admin",
  "create_time" : 1594027823529,
  "last_update_time" : 1594027823529,
  "checker_props" : [
    {
      "tool_name" : "CLOC",
      "checker_key" : "CodeLineCount",
      "props" : ""
    }
  ],
  "task_usage" : 5491,
  "enable" : 1,
  "project_id" : "codecc",
  "description" : "统计代码行、注释行、空白行等信息",
  "catagories" : [
    {
      "en_name" : "FORMAT",
      "cn_name" : "规范"
    }
  ],
  "base_checker_set_id" : "",
  "init_checkers" : true,
  "official" : 2,
  "checker_set_source" : "RECOMMEND"
}


{
  "_id":{"$oid":"5f02f006b137060a1d50474e"},
  "_class" : "com.tencent.bk.codecc.defect.model.checkerset.CheckerSetEntity",
  "checker_set_id" : "cloc_csharp",
  "version" : 1,
  "checker_set_name" : "代码行统计(C#)",
  "code_lang" : 1,
  "checker_set_lang" : "C#",
  "scope" : 1,
  "creator" : "admin",
  "create_time" : 1594028037988,
  "last_update_time" : 1594028037988,
  "checker_props" : [
    {
      "tool_name" : "CLOC",
      "checker_key" : "CodeLineCount",
      "props" : ""
    }
  ],
  "enable" : 1,
  "project_id" : "codecc",
  "description" : "统计代码行、注释行、空白行等信息",
  "catagories" : [
    {
      "en_name" : "FORMAT",
      "cn_name" : "规范"
    }
  ],
  "base_checker_set_id" : "",
  "init_checkers" : true,
  "official" : 2,
  "task_usage" : 12,
  "checker_set_source" : "RECOMMEND"
}


{
  "_id":{"$oid":"5f02ef79f7a4321cc01038e4"},
  "_class" : "com.tencent.bk.codecc.defect.model.checkerset.CheckerSetEntity",
  "checker_set_id" : "cloc_java",
  "version" : 1,
  "checker_set_name" : "代码行统计(Java)",
  "code_lang" : 4,
  "checker_set_lang" : "JAVA",
  "scope" : 1,
  "creator" : "admin",
  "create_time" : 1594027897308,
  "last_update_time" : 1594027897308,
  "checker_props" : [
    {
      "tool_name" : "CLOC",
      "checker_key" : "CodeLineCount",
      "props" : ""
    }
  ],
  "task_usage" : 1587,
  "enable" : 1,
  "project_id" : "codecc",
  "description" : "统计代码行、注释行、空白行等信息",
  "catagories" : [
    {
      "en_name" : "FORMAT",
      "cn_name" : "规范"
    }
  ],
  "base_checker_set_id" : "",
  "init_checkers" : true,
  "official" : 2,
  "checker_set_source" : "RECOMMEND"
}


{
  "_id":{"$oid":"5f02f030ef198216b720f958"},
  "_class" : "com.tencent.bk.codecc.defect.model.checkerset.CheckerSetEntity",
  "checker_set_id" : "cloc_js",
  "version" : 1,
  "checker_set_name" : "代码行统计(JS)",
  "code_lang" : 64,
  "checker_set_lang" : "JS",
  "scope" : 1,
  "creator" : "admin",
  "create_time" : 1594028080237,
  "last_update_time" : 1594028080237,
  "checker_props" : [
    {
      "tool_name" : "CLOC",
      "checker_key" : "CodeLineCount",
      "props" : ""
    }
  ],
  "task_usage" : 877,
  "enable" : 1,
  "project_id" : "codecc",
  "description" : "统计代码行、注释行、空白行等信息",
  "catagories" : [
    {
      "en_name" : "FORMAT",
      "cn_name" : "规范"
    }
  ],
  "base_checker_set_id" : "",
  "init_checkers" : true,
  "official" : 2,
  "checker_set_source" : "RECOMMEND"
}


{
  "_id":{"$oid":"5f2d56189617695ded8461cb"},
  "_class" : "com.tencent.bk.codecc.defect.model.checkerset.CheckerSetEntity",
  "checker_set_id" : "cloc_kotlin",
  "version" : 1,
  "checker_set_name" : "代码行统计(Kotlin)",
  "code_lang" : 4096,
  "checker_set_lang" : "Kotlin",
  "scope" : 1,
  "creator" : "admin",
  "create_time" : 1596806680952,
  "last_update_time" : 1596806680952,
  "checker_props" : [
    {
      "tool_name" : "CLOC",
      "checker_key" : "CodeLineCount",
      "props" : ""
    }
  ],
  "task_usage" : 61,
  "enable" : 1,
  "project_id" : "codecc",
  "description" : "统计代码行、注释行、空白行等信息",
  "catagories" : [
    {
      "en_name" : "FORMAT",
      "cn_name" : "规范"
    }
  ],
  "base_checker_set_id" : "",
  "init_checkers" : true,
  "official" : 2,
  "checker_set_source" : "RECOMMEND"
}


{
  "_id":{"$oid":"5f313e14b137063cfce094c3"},
  "_class" : "com.tencent.bk.codecc.defect.model.checkerset.CheckerSetEntity",
  "checker_set_id" : "cloc_lua",
  "version" : 1,
  "checker_set_name" : "代码行统计(lua)",
  "code_lang" : 256,
  "checker_set_lang" : "LUA",
  "scope" : 1,
  "creator" : "admin",
  "create_time" : 1597062676782,
  "last_update_time" : 1597062676782,
  "checker_props" : [
    {
      "tool_name" : "CLOC",
      "checker_key" : "CodeLineCount",
      "props" : ""
    }
  ],
  "task_usage" : 22,
  "enable" : 1,
  "project_id" : "codecc",
  "description" : "统计代码行、注释行、空白行等信息",
  "catagories" : [
    {
      "en_name" : "FORMAT",
      "cn_name" : "规范"
    }
  ],
  "base_checker_set_id" : "",
  "init_checkers" : true,
  "official" : 2,
  "checker_set_source" : "RECOMMEND"
}


{
  "_id":{"$oid":"5f02ef9bef198216b720f954"},
  "_class" : "com.tencent.bk.codecc.defect.model.checkerset.CheckerSetEntity",
  "checker_set_id" : "cloc_oc",
  "version" : 1,
  "checker_set_name" : "代码行统计(OC)",
  "code_lang" : 16,
  "checker_set_lang" : "OC/OC++",
  "scope" : 1,
  "creator" : "admin",
  "create_time" : 1594027931231,
  "last_update_time" : 1594027931231,
  "checker_props" : [
    {
      "tool_name" : "CLOC",
      "checker_key" : "CodeLineCount",
      "props" : ""
    }
  ],
  "enable" : 1,
  "project_id" : "codecc",
  "description" : "统计代码行、注释行、空白行等信息",
  "catagories" : [
    {
      "en_name" : "FORMAT",
      "cn_name" : "规范"
    }
  ],
  "base_checker_set_id" : "",
  "init_checkers" : true,
  "official" : 2,
  "task_usage" : 72,
  "checker_set_source" : "RECOMMEND"
}


{
  "_id":{"$oid":"5f313d641e48562bb8074986"},
  "_class" : "com.tencent.bk.codecc.defect.model.checkerset.CheckerSetEntity",
  "checker_set_id" : "cloc_php",
  "version" : 1,
  "checker_set_name" : "代码行统计(php)",
  "code_lang" : 8,
  "checker_set_lang" : "PHP",
  "scope" : 2,
  "creator" : "admin",
  "create_time" : 1597062500406,
  "last_update_time" : 1597062500406,
  "checker_props" : [
    {
      "tool_name" : "CLOC",
      "checker_key" : "CodeLineCount",
      "props" : ""
    }
  ],
  "task_usage" : 34,
  "enable" : 1,
  "project_id" : "codecc",
  "description" : "统计代码行、注释行、空白行等信息",
  "catagories" : [
    {
      "en_name" : "FORMAT",
      "cn_name" : "规范"
    }
  ],
  "base_checker_set_id" : "",
  "init_checkers" : true,
  "official" : 2,
  "checker_set_source" : "RECOMMEND"
}


{
  "_id":{"$oid":"5f02efce1e48562a59628314"},
  "_class" : "com.tencent.bk.codecc.defect.model.checkerset.CheckerSetEntity",
  "checker_set_id" : "cloc_python",
  "version" : 1,
  "checker_set_name" : "代码行统计(Python)",
  "code_lang" : 32,
  "checker_set_lang" : "Python",
  "scope" : 1,
  "creator" : "admin",
  "create_time" : 1594027982590,
  "last_update_time" : 1594027982590,
  "checker_props" : [
    {
      "tool_name" : "CLOC",
      "checker_key" : "CodeLineCount",
      "props" : ""
    }
  ],
  "task_usage" : 1000,
  "enable" : 1,
  "project_id" : "codecc",
  "description" : "统计代码行、注释行、空白行等信息",
  "catagories" : [
    {
      "en_name" : "FORMAT",
      "cn_name" : "规范"
    }
  ],
  "base_checker_set_id" : "",
  "init_checkers" : true,
  "official" : 2,
  "checker_set_source" : "RECOMMEND"
}


{
  "_id":{"$oid":"5f313daaef19827f84dfd4de"},
  "_class" : "com.tencent.bk.codecc.defect.model.checkerset.CheckerSetEntity",
  "checker_set_id" : "cloc_ruby",
  "version" : 1,
  "checker_set_name" : "代码行统计(ruby)",
  "code_lang" : 128,
  "checker_set_lang" : "Ruby",
  "scope" : 1,
  "creator" : "admin",
  "create_time" : 1597062570612,
  "last_update_time" : 1597062570612,
  "checker_props" : [
    {
      "tool_name" : "CLOC",
      "checker_key" : "CodeLineCount",
      "props" : ""
    }
  ],
  "enable" : 1,
  "project_id" : "codecc",
  "description" : "统计代码行、注释行、空白行等信息",
  "catagories" : [
    {
      "en_name" : "FORMAT",
      "cn_name" : "规范"
    }
  ],
  "base_checker_set_id" : "",
  "init_checkers" : true,
  "official" : 2,
  "checker_set_source" : "RECOMMEND",
  "task_usage" : 1
}


{
  "_id":{"$oid":"5f313de3ef19827f84dfd4e0"},
  "_class" : "com.tencent.bk.codecc.defect.model.checkerset.CheckerSetEntity",
  "checker_set_id" : "cloc_ruby",
  "version" : 2,
  "checker_set_name" : "代码行统计(ruby)",
  "code_lang" : 128,
  "checker_set_lang" : "Ruby",
  "scope" : 1,
  "creator" : "admin",
  "create_time" : 1597062570612,
  "last_update_time" : 1597062570612,
  "checker_props" : [
    {
      "tool_name" : "CLOC",
      "checker_key" : "CodeLineCount",
      "props" : ""
    }
  ],
  "enable" : 1,
  "project_id" : "codecc",
  "description" : "统计代码行、注释行、空白行等信息",
  "catagories" : [
    {
      "en_name" : "FORMAT",
      "cn_name" : "规范"
    }
  ],
  "base_checker_set_id" : "",
  "init_checkers" : true,
  "official" : 2,
  "checker_set_source" : "RECOMMEND",
  "task_usage" : 1
}


{
  "_id":{"$oid":"5f31467af7a4320e60c2304d"},
  "_class" : "com.tencent.bk.codecc.defect.model.checkerset.CheckerSetEntity",
  "checker_set_id" : "cloc_solidity",
  "version" : 1,
  "checker_set_name" : "代码行统计(Solidity)",
  "code_lang" : 16384,
  "checker_set_lang" : "Solidity",
  "scope" : 1,
  "creator" : "admin",
  "create_time" : 1597064826878,
  "last_update_time" : 1597064826878,
  "checker_props" : [
    {
      "tool_name" : "CLOC",
      "checker_key" : "CodeLineCount",
      "props" : ""
    }
  ],
  "enable" : 1,
  "project_id" : "codecc",
  "description" : "统计代码行、注释行、空白行等信息",
  "catagories" : [
    {
      "en_name" : "FORMAT",
      "cn_name" : "规范"
    }
  ],
  "base_checker_set_id" : "",
  "init_checkers" : true,
  "official" : 2,
  "checker_set_source" : "RECOMMEND",
  "task_usage" : 3
}


{
  "_id":{"$oid":"5f313e508892bf33acf79fa0"},
  "_class" : "com.tencent.bk.codecc.defect.model.checkerset.CheckerSetEntity",
  "checker_set_id" : "cloc_swift",
  "version" : 1,
  "checker_set_name" : "代码行统计(swift)",
  "code_lang" : 1024,
  "checker_set_lang" : "Swift",
  "scope" : 1,
  "creator" : "admin",
  "create_time" : 1597062736876,
  "last_update_time" : 1597062736876,
  "checker_props" : [
    {
      "tool_name" : "CLOC",
      "checker_key" : "CodeLineCount",
      "props" : ""
    }
  ],
  "enable" : 1,
  "project_id" : "codecc",
  "description" : "统计代码行、注释行、空白行等信息",
  "catagories" : [
    {
      "en_name" : "FORMAT",
      "cn_name" : "规范"
    }
  ],
  "base_checker_set_id" : "",
  "init_checkers" : true,
  "official" : 2,
  "task_usage" : 40,
  "checker_set_source" : "RECOMMEND"
}


{
  "_id":{"$oid":"5f2d5642f7a4320e60c22c97"},
  "_class" : "com.tencent.bk.codecc.defect.model.checkerset.CheckerSetEntity",
  "checker_set_id" : "cloc_ts",
  "version" : 1,
  "checker_set_name" : "代码行统计(TS)",
  "code_lang" : 2048,
  "checker_set_lang" : "TS",
  "scope" : 1,
  "creator" : "admin",
  "create_time" : 1596806722007,
  "last_update_time" : 1596806722007,
  "checker_props" : [
    {
      "tool_name" : "CLOC",
      "checker_key" : "CodeLineCount",
      "props" : ""
    }
  ],
  "task_usage" : 82,
  "enable" : 1,
  "project_id" : "codecc",
  "description" : "统计代码行、注释行、空白行等信息",
  "catagories" : [
    {
      "en_name" : "FORMAT",
      "cn_name" : "规范"
    }
  ],
  "base_checker_set_id" : "",
  "init_checkers" : true,
  "official" : 2,
  "checker_set_source" : "RECOMMEND"
}


{
  "_id":{"$oid":"5e7c7fe0467d4daef86b5536"},
  "_class" : "com.tencent.bk.codecc.defect.model.checkerset.CheckerSetEntity",
  "checker_set_id" : "standard_cloc",
  "version" : 1,
  "checker_set_name" : "代码行通用扫描规则集(CLOC)",
  "code_lang" : 1073741824,
  "checker_set_lang" : "其他",
  "scope" : 1,
  "creator" : "admin",
  "create_time" : 1582166950635,
  "last_update_time" : 1582166950635,
  "checker_props" : [
    {
      "tool_name" : "CLOC",
      "checker_key" : "goimports/notimport",
      "props" : ""
    }
  ],
  "task_usage" : 72589,
  "enable" : 1,
  "project_id" : "codecc",
  "description" : "将根据公司规范持续更新…",
  "catagories" : [
    {
      "en_name" : "FORMAT",
      "cn_name" : "规范"
    }
  ],
  "base_checker_set_id" : "",
  "init_checkers" : true,
  "official" : 2,
  "checker_set_source" : "RECOMMEND",
  "recommended" : 2
}


{
  "_id":{"$oid":"5f2d5430f7a4320e60c22c96"},
  "_class" : "com.tencent.bk.codecc.defect.model.checkerset.CheckerSetEntity",
  "checker_set_id" : "standard_cloc",
  "version" : 2,
  "checker_set_name" : "代码行通用扫描规则集(CLOC)",
  "code_lang" : 1073741824,
  "checker_set_lang" : "其他",
  "scope" : 1,
  "creator" : "admin",
  "create_time" : 1582166950635,
  "last_update_time" : 1582166950635,
  "checker_props" : [
    {
      "tool_name" : "CLOC",
      "checker_key" : "goimports/notimport",
      "props" : ""
    },
    {
      "tool_name" : "CLOC",
      "checker_key" : "CodeLineCount",
      "props" : ""
    }
  ],
  "task_usage" : 72589,
  "enable" : 1,
  "project_id" : "codecc",
  "description" : "将根据公司规范持续更新…",
  "catagories" : [
    {
      "en_name" : "FORMAT",
      "cn_name" : "规范"
    }
  ],
  "base_checker_set_id" : "",
  "init_checkers" : true,
  "official" : 2,
  "checker_set_source" : "RECOMMEND",
  "recommended" : 2
}